<?xml version="1.0" encoding="UTF-8"?>
<CustomTab xmlns="http://soap.sforce.com/2006/04/metadata">
    <customObject>true</customObject>
    <icon>Salesforce_Tab_Icons/Contract_Icon.png</icon>
    <motif>Custom205: TV Widescreen</motif>
</CustomTab>
