<?xml version="1.0" encoding="UTF-8"?>
<CustomTab xmlns="http://soap.sforce.com/2006/04/metadata">
    <label>InvestorsList</label>
    <lwcComponent>investorsListComponent</lwcComponent>
    <motif>Custom4: Hexagon</motif>
</CustomTab>
